{
  "type": "service_account",
  "project_id": "firstproject-1336",
  "private_key_id": "4e926a6a390331636c432288458a238a34c7db5b",
  "private_key": "-----BEGIN PRIVATE KEY-----\nMIIEvQIBADANBgkqhkiG9w0BAQEFAASCBKcwggSjAgEAAoIBAQCt/6kPHQoUnopm\niUJoHIQGHBSLYoD+OPX3jGq3Z3/WuivVh/V9+xH5Qc8mqO7WQNmT2OEFl1Mnhtyb\nrJzCUZEYf9wqw7MoXFTcbHeN1mUfvAW+P83yDXP23PN+8Tn8yqshZqErsYnCjO3m\nOAFPntWiAtuP6VYoVLjKWom47qfU4qLKGhBD2Wj6R70Ma+BYfHPD1ITv8PGg2FE9\nMUjPcx0nz95cuLErDnHt6lbJypbKqzzZvY/rTCk7hvrAw2puaOi9sufMFkyWft1L\nW5qgwxg+CqJnxZegcZBA50pk/ANIkFMAjIFcMMHIu4LbknItwlCwrf/ZkuiHQwhM\ncoxyTQqdAgMBAAECggEABoWruAqPXxb97+/WCqeDpmP6kX/41FldFPFRQGczh6Bq\nYLfBiBOiHe0C1LuRL6b2JkCDV3g6OyQnFE8b1X0vumfz4DF+P3V4joZNU/EqULkg\nS6bsyMA1gtZ6P8hPM2PYbCktQkFGfUGsRYx/YL/pg51mTrEWfu6wD5EQZ7DLHzkV\n+8G12F4eVSIJad0PK5Mgcj1mAiEwJSyUKa1nYcDGsgTd1DLVvXI3ePGyp/jBgaNb\ng5CSkLkK9875F6m7yDJM9L3JF53TQx4E1iIo2veVYLvQsp7hIfqmIWuyEbPkOgj4\n/m9eHNJy5ceNbMcnX/vTv4ozgzWIQTn9E0zO/DRDYQKBgQDtUpCJXIoRZsppo2t5\nXrHmTwk9tzFClpIOuPxKoojYZ5oArEfCfzfI8Qd6js3lubTJEIgjZmpcvmXUIB/Z\nLfXYzpRNAZMRui/3yctZpvKc9HVyXmvBS+5327g81xhx8w5gIO114ctsg9TtUzXO\nSU2VVso0ZXQwjo8j52yL/b1HIQKBgQC7sUiyp6Q8HeBa4Vc0mjefjyhu6fr+b7DO\nJfE7pJMsA39XTc6QAIoeKeVOtF2red0xDnA6Y7KC1i7SRdsJ7N+QPyUVP21eAKyV\n/tvZubkaR0vL3x7c4k/vKhJRcucXlwR1s36CUXp5NNca4wHrGMY3kwlq7hEbDEt6\nLL6xTEjf/QKBgCqdQMbpjwFA6+e8KHhKwLcSSh6C3p2OW/u4y9S7CseREt48EUaj\ngWjbnvQq4F330ran+UoiAcdViQNmIVHmJtcfgRGyzq3IOQTNf25BxB7a5pv6yG6V\nK+Tp11NVbFZJxrMMNpeMS/LYWUukPW0lTIEcbIKsFQkDEEDqNVuN3IcBAoGBALBN\nfvQR9HtjtPKo6LlIgycl2d0Ve+a0E2gQy+AyXuvg/SSMuZMabqKWyAZ99d60wcjq\nvxCZxXyQo7pwU6enEPj112d2BM1f5L2gf/KsOestPU1rcBobmuoUotBPFjNab53/\n1L2ku15O/B8NTSgARXC+dQI0TW0Sx3MjxJvWBD4hAoGAGEqJvP/EUZlq5QxdN6f7\nXiu0inj8ve7Aeo61prL0zQYOZwsTruccoZuHY89QDy+qs9Z4AmO+3b4yMPIHXnhC\n1vyAp/s84c7UNCjg4cdI22veFBlW8Lf1gVLiEX+nFeDyBG6EoK+/Xbe6hC7Of38q\nqaOtgc17NXR00L+AgjLx/l4=\n-----END PRIVATE KEY-----\n",
  "client_email": "cloudvision@firstproject-1336.iam.gserviceaccount.com",
  "client_id": "112826476794318867461",
  "auth_uri": "https://accounts.google.com/o/oauth2/auth",
  "token_uri": "https://oauth2.googleapis.com/token",
  "auth_provider_x509_cert_url": "https://www.googleapis.com/oauth2/v1/certs",
  "client_x509_cert_url": "https://www.googleapis.com/robot/v1/metadata/x509/cloudvision%40firstproject-1336.iam.gserviceaccount.com"
}
